<svg xmlns="http://www.w3.org/2000/svg" width="77" height="76" viewBox="0 0 77 76">
    <g fill="#FFF" fill-rule="nonzero">
        <path d="M58.189 25.21a1.216 1.216 0 0 1-1.212-1.128l-.888-12.372a1.247 1.247 0 0 1-.009-.138c-.052-4.994-3.94-9.057-8.67-9.057H30.208c-4.73 0-8.619 4.064-8.67 9.06 0 .038-.003.077-.007.117l-.895 12.39a1.216 1.216 0 1 1-2.426-.175l.896-12.413c.1-6.303 5.067-11.41 11.102-11.41H47.41c6.036 0 11.003 5.108 11.101 11.399v.003l.892 12.422a1.216 1.216 0 0 1-1.214 1.303z"/>
        <path d="M38.413 55.137c-10.473 0-17.987-8.379-19.625-21.873a1.34 1.34 0 0 1-.018-.1c-.022-.154-.125-.253-.187-.253l-.032.003c-2.653.19-4.883-2.017-4.883-4.751 0-2.626 2.045-4.762 4.56-4.762H58.6c2.514 0 4.56 2.136 4.56 4.762 0 2.626-2.046 4.762-4.56 4.762-.11 0-.221-.003-.33-.012-.05.001-.187.088-.212.253-.004.03-.01.058-.016.086l-.005.025c-1.64 13.483-9.153 21.86-19.625 21.86zm-17.22-22.25c.742 6.222 2.808 11.346 5.974 14.818 2.985 3.272 6.873 5.001 11.246 5.001s8.262-1.73 11.246-5c3.168-3.474 5.234-8.6 5.976-14.825.008-.068.021-.132.039-.195.257-1.316 1.448-2.28 2.769-2.198.065.005.111.006.157.006 1.173 0 2.127-1.046 2.127-2.331s-.954-2.331-2.127-2.331H18.227c-1.173 0-2.127 1.046-2.127 2.33 0 1.31 1.053 2.407 2.266 2.328 1.346-.115 2.546.868 2.794 2.22.015.058.026.117.033.177zM39.182 75.513a1.216 1.216 0 0 1-1.217-1.216v-4.333a1.144 1.144 0 0 1-.004-.102.09.09 0 0 0-.012-.04L30.47 57.95a1.268 1.268 0 0 1-.032-.047.117.117 0 0 0-.116-.05C17.71 60.103 8.063 65.77 2.432 74.238a1.217 1.217 0 0 1-2.026-1.346C6.414 63.858 16.613 57.83 29.9 55.46a2.542 2.542 0 0 1 2.598 1.147l7.51 11.922c.23.365.36.784.382 1.22.005.045.008.09.008.133v4.417c0 .67-.545 1.215-1.216 1.215zM75.137 74.702c-.394 0-.78-.19-1.015-.543-5.422-8.152-14.709-13.606-26.855-15.772-.029-.004-.053.016-.063.03-.01.017-.021.033-.033.05L42.64 65.65a1.217 1.217 0 0 1-2.058-1.296l4.564-7.237a1.09 1.09 0 0 1 .058-.083 2.493 2.493 0 0 1 2.487-1.042c12.819 2.286 22.658 8.102 28.458 16.82a1.215 1.215 0 0 1-1.012 1.89zM38.573 18.434a1.216 1.216 0 0 1-1.216-1.215V9.116a1.216 1.216 0 0 1 2.433 0v8.103c0 .67-.545 1.215-1.217 1.215z"/>
        <path d="M42.627 14.383H34.52a1.216 1.216 0 1 1 0-2.431h8.108a1.216 1.216 0 1 1 0 2.43z"/>
    </g>
</svg>
