<svg xmlns="http://www.w3.org/2000/svg" width="24" height="16" viewBox="0 0 24 16">
    <g fill="#FF7C6B" fill-rule="nonzero">
        <path d="M12 1V.727h.749V.555c0-.307.563-.555 1.26-.555.696 0 1.259.248 1.259.555v.172H16V1h-4zM18 12a2 2 0 1 0 0 4 2 2 0 0 0 0-4zm0 2.957a.957.957 0 1 1 0-1.914.957.957 0 0 1 0 1.914zM5 12a2 2 0 1 0 .002 4.001A2 2 0 0 0 5 12zm.004 2.96a.957.957 0 1 1 0-1.914.957.957 0 0 1 0 1.913z"/>
        <path d="M22.087 7.402c.68.135 1.088.434 1.395 2.143l.486 3.085c.175 1.004-.383 1.37-1.078 1.37h-1.669c0-1.663-1.324-3.017-2.958-3.017-1.635 0-2.96 1.354-2.96 3.017H8.169c0-1.663-1.325-3.017-2.96-3.017-1.634 0-2.96 1.354-2.96 3.017H.868A.852.852 0 0 1 0 13.14V2.997C0 2.444.429 2 .954 2h17.911c.68 0 1.178.344 1.424.947l1.798 4.455zm-5.97-4.368v4.214h4.787l-1.68-4.214h-3.108zm-4.283 3.673V4.12h-2.54v2.586H6.751v2.586h2.541v2.585h2.54V9.293h2.541V6.707h-2.54z"/>
    </g>
</svg>
