<?xml version="1.0" encoding="UTF-8"?>
<svg width="97px" height="17px" viewBox="0 0 97 17" version="1.1" xmlns="http://www.w3.org/2000/svg" xmlns:xlink="http://www.w3.org/1999/xlink">
    <!-- Generator: Sketch 46 (44423) - http://www.bohemiancoding.com/sketch -->
    <title>%</title>
    <desc>Created with Sketch.</desc>
    <defs></defs>
    <g id="Doctors" stroke="none" stroke-width="1" fill="none" fill-rule="evenodd">
        <g id="Doctors_320" transform="translate(-144.000000, -659.000000)">
            <g id="tiser-copy-3" transform="translate(14.000000, 561.000000)">
                <g id="price" transform="translate(12.000000, 76.000000)">
                    <g id="%" transform="translate(118.000000, 8.000000)">
                        <path d="M10.9463427,14.5 C8.81155209,14.5 6.73898121,15.2190297 5.06286371,16.5411345 L2.39878139,18.6425362 C2.09620113,18.8812085 1.82275388,19.1546535 1.58407911,19.4572318 C-0.0963756527,21.5876168 0.268364883,24.6769128 2.39874989,26.3573676 L5.06284854,28.4588175 C6.73897613,29.7809525 8.81157124,30.5 10.9463885,30.5 L93,30.5 C94.9329966,30.5 96.5,28.9329966 96.5,27 L96.5,18 C96.5,16.0670034 94.9329966,14.5 93,14.5 L10.9463427,14.5 Z" id="Rectangle-11" stroke="#2E72B6"></path>
                        <path d="M12.3071289,20.5 C12.3071289,21.1201203 12.36206,21.5827621 12.4719238,21.8879395 C12.5817877,22.1931168 12.7587878,22.3457031 13.0029297,22.3457031 C13.471682,22.3457031 13.7060547,21.7304749 13.7060547,20.5 C13.7060547,19.2792908 13.471682,18.6689453 13.0029297,18.6689453 C12.7587878,18.6689453 12.5817877,18.8190903 12.4719238,19.1193848 C12.36206,19.4196792 12.3071289,19.8798797 12.3071289,20.5 Z M15.5517578,20.4853516 C15.5517578,21.6084041 15.3344748,22.4519015 14.8999023,23.0158691 C14.4653299,23.5798368 13.8281292,23.8618164 12.9882812,23.8618164 C12.1826132,23.8618164 11.5600608,23.5725127 11.1206055,22.9938965 C10.6811501,22.4152803 10.4614258,21.579107 10.4614258,20.4853516 C10.4614258,18.2538951 11.3037025,17.1381836 12.9882812,17.1381836 C13.8134807,17.1381836 14.4470193,17.4274873 14.888916,18.0061035 C15.3308128,18.5847197 15.5517578,19.4111274 15.5517578,20.4853516 Z M20.5908203,17.2919922 L14.6508789,28 L12.8930664,28 L18.8330078,17.2919922 L20.5908203,17.2919922 Z M19.8071289,24.7773438 C19.8071289,25.397464 19.86206,25.8601059 19.9719238,26.1652832 C20.0817877,26.4704605 20.2587878,26.6230469 20.5029297,26.6230469 C20.971682,26.6230469 21.2060547,26.0078187 21.2060547,24.7773438 C21.2060547,23.5566345 20.971682,22.9462891 20.5029297,22.9462891 C20.2587878,22.9462891 20.0817877,23.096434 19.9719238,23.3967285 C19.86206,23.697023 19.8071289,24.1572235 19.8071289,24.7773438 Z M23.0517578,24.7626953 C23.0517578,25.880865 22.8344748,26.721921 22.3999023,27.2858887 C21.9653299,27.8498563 21.3281292,28.1318359 20.4882812,28.1318359 C19.6826132,28.1318359 19.0600608,27.8425322 18.6206055,27.263916 C18.1811501,26.6852998 17.9614258,25.8515679 17.9614258,24.7626953 C17.9614258,22.5312388 18.8037025,21.4155273 20.4882812,21.4155273 C21.3134807,21.4155273 21.9470193,21.7048311 22.388916,22.2834473 C22.8308128,22.8620634 23.0517578,23.6884712 23.0517578,24.7626953 Z" fill="#2E72B6"></path>
                        <g id="logo" transform="translate(26.000000, 15.000000)" fill="#2E72B6">
                            <path d="M59.264,5.336 C59.264,3.744 60.432,2.56 62.032,2.56 C63.632,2.56 64.8,3.744 64.8,5.336 C64.8,6.928 63.632,8.112 62.032,8.112 C60.432,8.112 59.264,6.928 59.264,5.336 Z M64.352,5.336 C64.352,4.008 63.384,2.96 62.032,2.96 C60.68,2.96 59.712,4.008 59.712,5.336 C59.712,6.672 60.688,7.712 62.032,7.712 C63.376,7.712 64.352,6.672 64.352,5.336 Z M63.384,6.776 L62.688,6.776 L61.76,5.592 L61.76,6.776 L61.192,6.776 L61.192,3.784 L61.984,3.784 C62.936,3.784 63.056,4.392 63.056,4.68 C63.056,5.12 62.792,5.424 62.392,5.528 L63.384,6.776 Z M61.76,4.288 L61.76,5.12 L61.872,5.12 C62.288,5.12 62.496,4.952 62.496,4.696 C62.496,4.312 62.096,4.288 61.888,4.288 L61.76,4.288 Z" id="®"></path>
                            <path d="M3.432,11 L0.77,11 L0.77,3.663 L3.267,3.663 C4.004,3.663 5.236,3.762 6.182,4.675 C7.04,5.5 7.205,6.556 7.205,7.348 C7.205,8.316 6.963,9.174 6.248,9.889 C5.665,10.472 4.686,11 3.432,11 Z M2.673,5.28 L2.673,9.383 L3.058,9.383 C3.52,9.383 4.169,9.339 4.664,8.855 C4.906,8.624 5.225,8.162 5.225,7.348 C5.225,6.666 5.016,6.083 4.653,5.742 C4.202,5.324 3.608,5.28 3.135,5.28 L2.673,5.28 Z M16.7921111,7.337 C16.7921111,8.305 16.4181111,9.328 15.6371111,10.076 C14.8891111,10.791 13.8331111,11.165 12.7441111,11.165 C11.6551111,11.165 10.5991111,10.791 9.8511111,10.076 C9.0701111,9.328 8.6961111,8.305 8.6961111,7.337 C8.6961111,6.358 9.0701111,5.324 9.8511111,4.587 C10.5991111,3.872 11.6551111,3.498 12.7441111,3.498 C13.8331111,3.498 14.8891111,3.872 15.6371111,4.587 C16.4181111,5.324 16.7921111,6.358 16.7921111,7.337 Z M12.7441111,5.346 C12.2161111,5.346 11.6551111,5.533 11.2591111,5.929 C10.8631111,6.314 10.6761111,6.853 10.6761111,7.37 C10.6761111,8.019 10.9841111,8.47 11.2591111,8.734 C11.6111111,9.075 12.1061111,9.317 12.7441111,9.317 C13.3931111,9.317 13.8771111,9.086 14.2181111,8.745 C14.5591111,8.404 14.8121111,7.898 14.8121111,7.337 C14.8121111,6.765 14.5591111,6.259 14.2181111,5.929 C13.8111111,5.544 13.2501111,5.346 12.7441111,5.346 Z M23.8822222,8.547 C23.2112222,9.284 22.5072222,9.317 22.2212222,9.317 C21.6822222,9.317 21.1762222,9.108 20.8572222,8.811 C20.4722222,8.448 20.2632222,7.887 20.2632222,7.381 C20.2632222,6.864 20.4502222,6.292 20.9012222,5.874 C21.2532222,5.555 21.6712222,5.39 22.2212222,5.39 C22.5402222,5.39 23.2662222,5.434 23.8822222,6.193 L23.8822222,3.916 C23.0902222,3.597 22.5182222,3.542 22.1662222,3.542 C21.0222222,3.542 20.0432222,4.026 19.3942222,4.686 C18.7342222,5.357 18.2832222,6.347 18.2832222,7.392 C18.2832222,8.349 18.6792222,9.35 19.3942222,10.065 C19.9992222,10.659 20.9562222,11.165 22.2322222,11.165 C22.7052222,11.165 23.1232222,11.077 23.8822222,10.802 L23.8822222,8.547 Z M30.3123333,5.28 L30.3123333,3.663 L25.2853333,3.663 L25.2853333,5.28 L26.8473333,5.28 L26.8473333,11 L28.7503333,11 L28.7503333,5.28 L30.3123333,5.28 Z M39.5364444,7.337 C39.5364444,8.305 39.1624444,9.328 38.3814444,10.076 C37.6334444,10.791 36.5774444,11.165 35.4884444,11.165 C34.3994444,11.165 33.3434444,10.791 32.5954444,10.076 C31.8144444,9.328 31.4404444,8.305 31.4404444,7.337 C31.4404444,6.358 31.8144444,5.324 32.5954444,4.587 C33.3434444,3.872 34.3994444,3.498 35.4884444,3.498 C36.5774444,3.498 37.6334444,3.872 38.3814444,4.587 C39.1624444,5.324 39.5364444,6.358 39.5364444,7.337 Z M35.4884444,5.346 C34.9604444,5.346 34.3994444,5.533 34.0034444,5.929 C33.6074444,6.314 33.4204444,6.853 33.4204444,7.37 C33.4204444,8.019 33.7284444,8.47 34.0034444,8.734 C34.3554444,9.075 34.8504444,9.317 35.4884444,9.317 C36.1374444,9.317 36.6214444,9.086 36.9624444,8.745 C37.3034444,8.404 37.5564444,7.898 37.5564444,7.337 C37.5564444,6.765 37.3034444,6.259 36.9624444,5.929 C36.5554444,5.544 35.9944444,5.346 35.4884444,5.346 Z M44.8775555,8.327 L46.4395555,8.327 C46.3735555,8.734 46.1645555,8.998 45.9885555,9.141 C45.6475555,9.427 45.2625555,9.482 44.9325555,9.482 C44.3715555,9.482 43.9425555,9.295 43.5905555,8.921 C43.2495555,8.558 43.0075555,8.008 43.0075555,7.337 C43.0075555,6.765 43.2165555,6.083 43.6455555,5.654 C43.9865555,5.313 44.4485555,5.148 44.8995555,5.148 C45.2625555,5.148 45.6035555,5.247 45.9225555,5.511 C46.1095555,5.665 46.3185555,5.907 46.4505555,6.248 L48.2655555,5.5 C48.0015555,4.928 47.5285555,4.345 46.9565555,3.993 C46.3955555,3.652 45.6585555,3.498 44.9765555,3.498 C43.6785555,3.498 42.7325555,3.971 42.1275555,4.576 C41.4895555,5.203 41.0275555,6.16 41.0275555,7.326 C41.0275555,8.536 41.5335555,9.427 42.0835555,9.977 C42.6775555,10.582 43.5795555,11.066 44.8995555,11.066 C45.8345555,11.066 46.7145555,10.857 47.4845555,10.142 C48.3645555,9.328 48.6615555,8.294 48.6615555,6.842 L44.8775555,6.842 L44.8775555,8.327 Z M58.2486666,7.337 C58.2486666,8.305 57.8746666,9.328 57.0936666,10.076 C56.3456666,10.791 55.2896666,11.165 54.2006666,11.165 C53.1116666,11.165 52.0556666,10.791 51.3076666,10.076 C50.5266666,9.328 50.1526666,8.305 50.1526666,7.337 C50.1526666,6.358 50.5266666,5.324 51.3076666,4.587 C52.0556666,3.872 53.1116666,3.498 54.2006666,3.498 C55.2896666,3.498 56.3456666,3.872 57.0936666,4.587 C57.8746666,5.324 58.2486666,6.358 58.2486666,7.337 Z M54.2006666,5.346 C53.6726666,5.346 53.1116666,5.533 52.7156666,5.929 C52.3196666,6.314 52.1326666,6.853 52.1326666,7.37 C52.1326666,8.019 52.4406666,8.47 52.7156666,8.734 C53.0676666,9.075 53.5626666,9.317 54.2006666,9.317 C54.8496666,9.317 55.3336666,9.086 55.6746666,8.745 C56.0156666,8.404 56.2686666,7.898 56.2686666,7.337 C56.2686666,6.765 56.0156666,6.259 55.6746666,5.929 C55.2676666,5.544 54.7066666,5.346 54.2006666,5.346 Z" id="Doctogo-Copy"></path>
                        </g>
                    </g>
                </g>
            </g>
        </g>
    </g>
</svg>