<svg xmlns="http://www.w3.org/2000/svg" width="13" height="13" viewBox="0 0 13 13">
    <g fill="#6E6E6E" fill-rule="evenodd">
        <path fill-rule="nonzero" d="M12.765 12.572C11.773 11.065 9.342 10 6.5 10c-2.875 0-5.33 1.09-6.3 2.626A3.076 3.076 0 0 0 0 13h13a3.126 3.126 0 0 0-.235-.428zM3.186 5.278C3.247 7.067 4.706 9 6.5 9s3.254-1.933 3.312-3.722l.003-.104L10 0H3l.186 4.236v1.042zm2.905-3.406V.742h.744v1.13H7.94v.763H6.835v1.13h-.744v-1.13H4.987v-.763H6.09z"/>
        <path d="M7.531 8.599c0 .6 0 2.401.422 2.401H5c.281-.95.422-1.75.422-2.401 0-.975 2.11-.6 2.11 0z"/>
    </g>
</svg>
