<svg xmlns="http://www.w3.org/2000/svg" width="33" height="49" viewBox="0 0 33 49">
    <path fill="#64CAC8" fill-rule="nonzero" d="M33 15.87C33 10.691 29.387 0 18.222 0c-.312 0-.618.007-.917.02C8.199.41 2.777 4.63 1.19 12.56c-1.207 6.034-1.93 16.91.004 27.706C1.457 41.724 3.053 49 8.835 49c5.052 0 7.816-4.302 8.653-6.844 1.053-3.202 2.471-6.692 7.128-11.045C26.583 29.273 33 22.741 33 15.87zm-7.25-.977c0-1.982-1.343-7.639-7.312-7.639-4.393 0-7.394 1.78-8.283 4.754 3.1-1.207 6.494-1.109 9.1.358 3.261 1.836 5.057 5.58 5.057 10.541 0 3.726-3.01 7.557-6.71 8.54-3.436.913-4.224 2.45-4.517 3.527C11.955 39.128 9.695 40 8 40c-2.944 0-5-1.931-5-4.696 0-2.22 1.363-3.523 2.169-3.943a1.124 1.124 0 0 1 1.517.48c.284.548.076 1.221-.465 1.513-.11.063-.971.602-.971 1.95 0 1.506 1.054 2.442 2.75 2.442 1.326 0 2.307-1.132 2.915-3.365.68-2.495 2.735-4.216 6.109-5.113 2.684-.713 5.038-3.685 5.038-6.361 0-4.17-1.352-7.136-3.91-8.576-2.32-1.307-5.49-1.173-8.243.28a9.545 9.545 0 0 0 1.774 4.832c.95-.323 1.959-.255 2.833.219 1.203.65 1.921 1.934 1.921 3.433 0 1.201-.504 1.933-.928 2.336-.888.844-2.094.921-2.503.921-.062 0-.106-.002-.128-.003a1.126 1.126 0 0 1-1.064-1.184 1.124 1.124 0 0 1 1.173-1.067c.17.01.704-.04.978-.307.055-.053.222-.216.222-.696 0-.667-.27-1.195-.74-1.45-.434-.235-.964-.185-1.456.139a1.123 1.123 0 0 1-1.412-.146c-.12-.121-2.954-3.014-2.954-7.684l.002-.04v-.024C7.658 9.773 10.498 5 18.438 5 25.663 5 28 11.665 28 14.893a1.126 1.126 0 1 1-2.25 0z"/>
</svg>
