<svg xmlns="http://www.w3.org/2000/svg" width="47" height="47" viewBox="0 0 47 47">
    <path fill="#64CAC8" fill-rule="nonzero" d="M.178 13.337c.214 1.141.642 2.14 1.284 2.781-.285 1.07-.285 2.497-.142 3.566.142 1.07.5 2.71 1.498 3.923C1.106 25.961.82 29.17 2.176 31.88c1.855 3.637 5.85 5.35 10.773 4.493.428-.071 1.141-.285 1.926-.57.856-.286 2.569-.856 3.282-.927.143.713-.071 2.638-.143 3.494-.071.785-.142 1.427-.142 1.926v1.07c0 2.068 0 5.634 3.924 5.634h.071c3.14-.285 4.28-4.422 4.994-7.203l.071-.357c.642-2.496 1.499-7.132-.142-10.056-1.713-2.924-7.42-3.78-10.845-3.423-.356-1.213-1.212-2.283-2.14-2.925.285-.784.357-1.64.214-2.567-.214-1.213-.713-2.282-1.427-3.067.571-.998.642-2.14.214-3.21-.285-.784-.785-1.497-1.427-1.996.072-.143.072-.286.143-.428 1.07.713 2.283 1.212 3.496 1.07 1.355.927 3.496 1.997 5.137 1.711 1.926.927 5.85 1.141 7.848.143 1.426.428 3.139.143 4.28-.285.5-.214 1.07-.5 1.498-.927.643.142 1.356.213 2.07.285-.286.927-.357 1.925-.286 2.425 0 .142 0 .356.071.57a7.807 7.807 0 0 0-2.211 2.996c-.571 1.283-1 3.28 0 5.634-1.356 2.21-1.784 4.208-1.142 6.134.428 1.283 1.213 2.21 1.998 2.781-1.07 1.07-1.57 2.14-1.498 3.28.071 1.498.998 2.854 2.925 3.923.214.143.428.143.642.143.428 0 .785-.214.999-.57.356-.571.142-1.284-.428-1.64-1.07-.643-1.713-1.356-1.713-1.998 0-.57.5-1.284 1.427-2.068 3.853 1.07 6.635-.428 7.99-2.211 1.356-1.783 1.57-4.065.572-6.062.856-1.57.998-4.208.927-5.492 0-.357-.071-.713-.143-.998.357-.428.571-.999.714-1.712.285-1.284.214-2.924-.357-4.208.285-.428.5-.927.57-1.57.215-1.212.072-2.78-.641-3.78.142-4.492-2.569-5.99-4.281-6.49-2.64-.712-6.064-.07-7.705 1.07-.999-.427-2.212-.499-3.567-.213-1.213.285-2.426.784-3.282 1.426-1.142-.428-2.783-.428-3.781-.357-1.213.072-2.212.214-2.926.5-1.426-.785-3.78-1.427-5.136-1.498h-.856C13.377 2.068 10.737 0 7.955 0 4.887 0 2.604.927 1.32 2.71.107 4.422-.178 6.704.606 9.486c-.713.998-.713 2.567-.428 3.85z"/>
</svg>
