<svg xmlns="http://www.w3.org/2000/svg" width="26" height="21" viewBox="0 0 26 21">
    <path fill="#4A78F8" fill-rule="nonzero" d="M17.593 14.808h7.627v5.743c0 .27-.173.449-.433.449H.433C.173 21 0 20.82 0 20.551V.45C0 .179.173 0 .433 0h24.354c.26 0 .433.18.433.449v5.743h-7.627c-2.296 0-4.16 1.93-4.16 4.308-.043 2.378 1.82 4.308 4.16 4.308zM26 7.538v5.968c0 .27-.173.45-.433.45h-7.974c-1.82 0-3.293-1.527-3.293-3.411 0-1.885 1.473-3.41 3.293-3.41h7.974c.26-.045.433.134.433.403zM18.98 10.5c0-.673-.52-1.212-1.17-1.212-.65 0-1.17.539-1.17 1.212 0 .673.52 1.212 1.17 1.212.65 0 1.17-.539 1.17-1.212z"/>
</svg>
