<svg xmlns="http://www.w3.org/2000/svg" width="34" height="50" viewBox="0 0 34 50">
    <path fill="#64CAC8" fill-rule="nonzero" d="M32.98 40.338c-1.879-2.616-7.078-9.496-11.35-15.163 1.73-2.46 3.108-4.51 3.74-5.568 3.837-6.445 2.172-10.578.057-14.08C23.31 2.025 22.967 0 16.652 0c-6.314 0-6.65 2.025-8.766 5.527-2.116 3.502-3.789 7.643.05 14.08.63 1.058 2.008 3.084 3.738 5.568C7.402 30.842 2.203 37.722.325 40.346a2.944 2.944 0 0 0 0 2.69c.32.82 1.566 4.379 1.87 5.125.385.968 1.64 1.64 2.69.23.615-.829 6.429-8.758 11.767-16.204 5.339 7.437 11.153 15.375 11.751 16.195 1.034 1.435 2.296.738 2.69-.23.303-.754 1.542-4.33 1.87-5.125a2.96 2.96 0 0 0 .016-2.69zM15.757 17.303a50.965 50.965 0 0 1-4.55-7.97s1.04-1.887 5.46-1.887 5.462 1.886 5.462 1.886a51.334 51.334 0 0 1-4.551 7.97l-.927 1.24-.894-1.24z"/>
</svg>
